{"api_version": "1.0", "results": [{"organization_type_full": null, "party": null, "organization_type": null, "last_file_date": "2016-02-08", "sponsor_candidate_ids": null, "affiliated_committee_name": "NONE", "first_file_date": "2016-01-19", "name": "WORLD'S RICHEST PERSON JOSUE LAROSE SHOPPING MALLS COMMITTEE", "last_f1_date": "2016-01-19", "filing_frequency": "A", "cycles": [2016], "state": "FL", "designation_full": "Unauthorized", "treasurer_name": "LAROSE, JOSH", "committee_type_full": "Super PAC (Independent Expenditure-Only)", "committee_type": "O", "committee_id": "C00605113", "party_full": null, "candidate_ids": [], "sponsor_candidate_list": [], "designation": "U", "first_f1_date": "2016-01-19"}, {"organization_type_full": null, "party": null, "organization_type": null, "last_file_date": "2016-02-08", "sponsor_candidate_ids": null, "affiliated_committee_name": "NONE", "first_file_date": "2016-01-20", "name": "WORLD'S RICHEST PERSON JOSUE LAROSE SOFTWARE MANUFACTURERS COMMITTEE", "last_f1_date": "2016-01-20", "filing_frequency": "A", "cycles": [2016], "state": "FL", "designation_full": "Unauthorized", "treasurer_name": "LAROSE, JOSH", "committee_type_full": "Super PAC (Independent Expenditure-Only)", "committee_type": "O", "committee_id": "C00605345", "party_full": null, "candidate_ids": [], "sponsor_candidate_list": [], "designation": "U", "first_f1_date": "2016-01-20"}, {"organization_type_full": null, "party": null, "organization_type": null, "last_file_date": "2016-02-08", "sponsor_candidate_ids": null, "affiliated_committee_name": "NONE", "first_file_date": "2016-01-18", "name": "WORLD'S RICHEST PERSON JOSUE LAROSE STOCK BROKERAGE COMPANIES COMMITTEE", "last_f1_date": "2016-01-18", "filing_frequency": "A", "cycles": [2016], "state": "FL", "designation_full": "Unauthorized", "treasurer_name": "LAROSE, JOSH", "committee_type_full": "Super PAC (Independent Expenditure-Only)", "committee_type": "O", "committee_id": "C00604454", "party_full": null, "candidate_ids": [], "sponsor_candidate_list": [], "designation": "U", "first_f1_date": "2016-01-18"}, {"organization_type_full": null, "party": null, "organization_type": null, "last_file_date": "2016-02-08", "sponsor_candidate_ids": null, "affiliated_committee_name": "NONE", "first_file_date": "2016-01-18", "name": "WORLD'S RICHEST PERSON JOSUE LAROSE SUPERMARKETS COMMITTEE", "last_f1_date": "2016-01-18", "filing_frequency": "A", "cycles": [2016], "state": "FL", "designation_full": "Unauthorized", "treasurer_name": "LAROSE, JOSH", "committee_type_full": "Super PAC (Independent Expenditure-Only)", "committee_type": "O", "committee_id": "C00604850", "party_full": null, "candidate_ids": [], "sponsor_candidate_list": [], "designation": "U", "first_f1_date": "2016-01-18"}, {"organization_type_full": null, "party": null, "organization_type": null, "last_file_date": "2016-02-08", "sponsor_candidate_ids": null, "affiliated_committee_name": "NONE", "first_file_date": "2016-01-18", "name": "WORLD'S RICHEST PERSON JOSUE LAROSE TELEPHONE COMPANIES COMMITTEE", "last_f1_date": "2016-01-18", "filing_frequency": "A", "cycles": [2016], "state": "FL", "designation_full": "Unauthorized", "treasurer_name": "LAROSE, JOSH", "committee_type_full": "Super PAC (Independent Expenditure-Only)", "committee_type": "O", "committee_id": "C00604561", "party_full": null, "candidate_ids": [], "sponsor_candidate_list": [], "designation": "U", "first_f1_date": "2016-01-18"}, {"organization_type_full": null, "party": null, "organization_type": null, "last_file_date": "2016-02-08", "sponsor_candidate_ids": null, "affiliated_committee_name": "NONE", "first_file_date": "2016-01-17", "name": "WORLD'S RICHEST PERSON JOSUE LAROSE TRADE COMPANIES COMMITTEE", "last_f1_date": "2016-01-17", "filing_frequency": "A", "cycles": [2016], "state": "FL", "designation_full": "Unauthorized", "treasurer_name": "LAROSE, JOSH", "committee_type_full": "Super PAC (Independent Expenditure-Only)", "committee_type": "O", "committee_id": "C00604363", "party_full": null, "candidate_ids": [], "sponsor_candidate_list": [], "designation": "U", "first_f1_date": "2016-01-17"}, {"organization_type_full": null, "party": null, "organization_type": null, "last_file_date": "2016-02-08", "sponsor_candidate_ids": null, "affiliated_committee_name": "NONE", "first_file_date": "2016-01-20", "name": "WORLD'S RICHEST PERSON JOSUE LAROSE TRAIN MANUFACTURERS COMMITTEE", "last_f1_date": "2016-01-20", "filing_frequency": "A", "cycles": [2016], "state": "FL", "designation_full": "Unauthorized", "treasurer_name": "LAROSE, JOSH", "committee_type_full": "Super PAC (Independent Expenditure-Only)", "committee_type": "O", "committee_id": "C00605261", "party_full": null, "candidate_ids": [], "sponsor_candidate_list": [], "designation": "U", "first_f1_date": "2016-01-20"}, {"organization_type_full": null, "party": null, "organization_type": null, "last_file_date": "2016-02-08", "sponsor_candidate_ids": null, "affiliated_committee_name": "NONE", "first_file_date": "2016-01-18", "name": "WORLD'S RICHEST PERSON JOSUE LAROSE TRUST COMPANIES COMMITTEE", "last_f1_date": "2016-01-18", "filing_frequency": "A", "cycles": [2016], "state": "FL", "designation_full": "Unauthorized", "treasurer_name": "LAROSE, JOSH", "committee_type_full": "Super PAC (Independent Expenditure-Only)", "committee_type": "O", "committee_id": "C00604405", "party_full": null, "candidate_ids": [], "sponsor_candidate_list": [], "designation": "U", "first_f1_date": "2016-01-18"}, {"organization_type_full": null, "party": null, "organization_type": null, "last_file_date": "2016-02-08", "sponsor_candidate_ids": null, "affiliated_committee_name": "NONE", "first_file_date": "2016-01-18", "name": "WORLD'S RICHEST PERSON JOSUE LAROSE UNIVERSITIES COMMITTEE", "last_f1_date": "2016-01-18", "filing_frequency": "A", "cycles": [2016], "state": "FL", "designation_full": "Unauthorized", "treasurer_name": "LAROSE, JOSH", "committee_type_full": "Super PAC (Independent Expenditure-Only)", "committee_type": "O", "committee_id": "C00604645", "party_full": null, "candidate_ids": [], "sponsor_candidate_list": [], "designation": "U", "first_f1_date": "2016-01-18"}, {"organization_type_full": null, "party": null, "organization_type": null, "last_file_date": "2016-02-08", "sponsor_candidate_ids": null, "affiliated_committee_name": "NONE", "first_file_date": "2016-01-17", "name": "WORLD'S RICHEST PERSON JOSUE LAROSE VENTURE CAPITAL FIRMS COMMITTEE", "last_f1_date": "2016-01-17", "filing_frequency": "A", "cycles": [2016], "state": "FL", "designation_full": "Unauthorized", "treasurer_name": "LAROSE, JOSH", "committee_type_full": "Super PAC (Independent Expenditure-Only)", "committee_type": "O", "committee_id": "C00604355", "party_full": null, "candidate_ids": [], "sponsor_candidate_list": [], "designation": "U", "first_f1_date": "2016-01-17"}, {"organization_type_full": null, "party": null, "organization_type": null, "last_file_date": "2016-02-08", "sponsor_candidate_ids": null, "affiliated_committee_name": "NONE", "first_file_date": "2016-01-18", "name": "WORLD'S RICHEST PERSON JOSUE LAROSE VOCATIONAL SCHOOLS COMMITTEE", "last_f1_date": "2016-01-18", "filing_frequency": "A", "cycles": [2016], "state": "FL", "designation_full": "Unauthorized", "treasurer_name": "LAROSE, JOSH", "committee_type_full": "Super PAC (Independent Expenditure-Only)", "committee_type": "O", "committee_id": "C00604686", "party_full": null, "candidate_ids": [], "sponsor_candidate_list": [], "designation": "U", "first_f1_date": "2016-01-18"}, {"organization_type_full": null, "party": null, "organization_type": null, "last_file_date": "2016-02-08", "sponsor_candidate_ids": null, "affiliated_committee_name": "NONE", "first_file_date": "2016-01-17", "name": "WORLD'S RICHEST PERSON JOSUE LAROSE WEALTH MANAGEMENT COMPANIES COMMITTEE", "last_f1_date": "2016-01-17", "filing_frequency": "A", "cycles": [2016], "state": "FL", "designation_full": "Unauthorized", "treasurer_name": "LAROSE, JOSH", "committee_type_full": "Super PAC (Independent Expenditure-Only)", "committee_type": "O", "committee_id": "C00604322", "party_full": null, "candidate_ids": [], "sponsor_candidate_list": [], "designation": "U", "first_f1_date": "2016-01-17"}, {"organization_type_full": null, "party": null, "organization_type": null, "last_file_date": "2016-02-08", "sponsor_candidate_ids": null, "affiliated_committee_name": "NONE", "first_file_date": "2016-01-01", "name": "WORLD'S RICHEST PERSONS ASSOCIATION", "last_f1_date": "2016-01-01", "filing_frequency": "A", "cycles": [2016], "state": "FL", "designation_full": "Unauthorized", "treasurer_name": "LAROSE, JOSH", "committee_type_full": "Super PAC (Independent Expenditure-Only)", "committee_type": "O", "committee_id": "C00601138", "party_full": null, "candidate_ids": [], "sponsor_candidate_list": [], "designation": "U", "first_f1_date": "2016-01-01"}, {"organization_type_full": null, "party": null, "organization_type": null, "last_file_date": "2016-02-08", "sponsor_candidate_ids": null, "affiliated_committee_name": "NONE", "first_file_date": "2016-01-02", "name": "WORLD'S SAVINGS BANKS ASSOCIATION", "last_f1_date": "2016-01-02", "filing_frequency": "A", "cycles": [2016], "state": "FL", "designation_full": "Unauthorized", "treasurer_name": "LAROSE, JOSH", "committee_type_full": "Super PAC (Independent Expenditure-Only)", "committee_type": "O", "committee_id": "C00601658", "party_full": null, "candidate_ids": [], "sponsor_candidate_list": [], "designation": "U", "first_f1_date": "2016-01-02"}, {"organization_type_full": null, "party": null, "organization_type": null, "last_file_date": "2016-02-08", "sponsor_candidate_ids": null, "affiliated_committee_name": "NONE", "first_file_date": "2016-01-03", "name": "WORLD'S SHOPPING MALLS ASSOCIATION", "last_f1_date": "2016-01-03", "filing_frequency": "A", "cycles": [2016], "state": "FL", "designation_full": "Unauthorized", "treasurer_name": "LAROSE, JOSH", "committee_type_full": "Super PAC (Independent Expenditure-Only)", "committee_type": "O", "committee_id": "C00601989", "party_full": null, "candidate_ids": [], "sponsor_candidate_list": [], "designation": "U", "first_f1_date": "2016-01-03"}, {"organization_type_full": null, "party": null, "organization_type": null, "last_file_date": "2016-02-08", "sponsor_candidate_ids": null, "affiliated_committee_name": "NONE", "first_file_date": "2016-01-01", "name": "WORLD'S SPORT PLAYERS ASSOCIATION", "last_f1_date": "2016-01-01", "filing_frequency": "A", "cycles": [2016], "state": "FL", "designation_full": "Unauthorized", "treasurer_name": "LAROSE, JOSH", "committee_type_full": "Super PAC (Independent Expenditure-Only)", "committee_type": "O", "committee_id": "C00601252", "party_full": null, "candidate_ids": [], "sponsor_candidate_list": [], "designation": "U", "first_f1_date": "2016-01-01"}, {"organization_type_full": null, "party": null, "organization_type": null, "last_file_date": "2016-02-08", "sponsor_candidate_ids": null, "affiliated_committee_name": "NONE", "first_file_date": "2016-01-01", "name": "WORLD'S TELEPHONE COMPANIES ASSOCIATION", "last_f1_date": "2016-01-01", "filing_frequency": "A", "cycles": [2016], "state": "FL", "designation_full": "Unauthorized", "treasurer_name": "LAROSE, JOSH", "committee_type_full": "Super PAC (Independent Expenditure-Only)", "committee_type": "O", "committee_id": "C00601112", "party_full": null, "candidate_ids": [], "sponsor_candidate_list": [], "designation": "U", "first_f1_date": "2016-01-01"}, {"organization_type_full": null, "party": null, "organization_type": null, "last_file_date": "2016-02-08", "sponsor_candidate_ids": null, "affiliated_committee_name": "NONE", "first_file_date": "2016-01-02", "name": "WORLD SUPERMARKETS ASSOCIATION", "last_f1_date": "2016-01-02", "filing_frequency": "A", "cycles": [2016], "state": "FL", "designation_full": "Unauthorized", "treasurer_name": "LAROSE, JOSH", "committee_type_full": "Super PAC (Independent Expenditure-Only)", "committee_type": "O", "committee_id": "C00601724", "party_full": null, "candidate_ids": [], "sponsor_candidate_list": [], "designation": "U", "first_f1_date": "2016-01-02"}, {"organization_type_full": null, "party": null, "organization_type": null, "last_file_date": "2017-04-05", "sponsor_candidate_ids": null, "affiliated_committee_name": null, "first_file_date": "2010-06-01", "name": "WRAG PAC", "last_f1_date": "2012-04-17", "filing_frequency": "A", "cycles": [2010, 2012, 2014, 2016, 2018], "state": "OH", "designation_full": "Unauthorized", "treasurer_name": "ALEX MANGIE", "committee_type_full": "Super PAC (Independent Expenditure-Only)", "committee_type": "O", "committee_id": "C00484378", "party_full": null, "candidate_ids": [], "sponsor_candidate_list": [], "designation": "U", "first_f1_date": "2010-06-01"}, {"organization_type_full": null, "party": null, "organization_type": null, "last_file_date": "2020-07-15", "sponsor_candidate_ids": null, "affiliated_committee_name": null, "first_file_date": "2016-03-04", "name": "WRITEWAYOUT", "last_f1_date": "2016-03-04", "filing_frequency": "A", "cycles": [2016, 2018, 2020], "state": "MO", "designation_full": "Unauthorized", "treasurer_name": "MICHAEL H BROWN", "committee_type_full": "Super PAC (Independent Expenditure-Only)", "committee_type": "O", "committee_id": "C00610816", "party_full": null, "candidate_ids": [], "sponsor_candidate_list": [], "designation": "U", "first_f1_date": "2016-03-04"}], "pagination": {"count": 2499, "page": 124, "pages": 125, "per_page": 20}}